Research and Development
…
Research and Development

Alden Pritchard

October 2020

library(tidyverse)
library(ggplot2)
library(ggseas)
library(lubridate)

data <- read_csv('trade_log.csv')
data

## # A tibble: 408 x 6
##    Datetime            Symbol Rule     Side Performance NumTicks
##    <dttm>              <chr>  <chr>   <dbl>       <dbl>    <dbl>
##  1 2020-08-27 10:45:00 MU     0.2x0.4     1       0.101        5
##  2 2020-08-27 14:15:00 MU     0.2x0.4     1       0.281        5
##  3 2020-08-28 10:45:00 MU     0.2x0.4     1       0.476        4
##  4 2020-08-31 10:45:00 MU     0.2x0.4     1      -0.429        4
##  5 2020-09-01 11:15:00 MU     0.2x0.4     1      -0.384        1
##  6 2020-09-01 12:45:00 MU     0.2x0.4     1       0.520        4
##  7 2020-09-01 13:15:00 MU     0.2x0.4     1       0.154        5
##  8 2020-09-02 10:45:00 MU     0.2x0.4     1       0.485        1
##  9 2020-09-02 11:15:00 MU     0.2x0.4     1      -0.304        4
## 10 2020-09-03 10:45:00 MU     0.2x0.4     1      -0.257        3
## #  with 398 more rows
…
